2;2011-09-12;06:00;2011-09-12;14:00
3;2011-09-13;06:00;2011-09-13;14:00
1;2011-09-14;06:00;2011-09-14;14:00
1;2011-09-18;06:00;2011-09-18;14:00
4;2011-09-19;06:00;2011-09-19;14:00
4;2011-09-20;06:00;2011-09-20;14:00
1;2011-11-24;06:00;2011-11-24;14:00
2;2011-11-25;06:00;2011-11-25;14:00
3;2011-11-27;06:00;2011-11-27;14:00